LAB2/encoder8to3/tb_encoder8to3dataflow.vcd
$date
	Mon Feb 23 11:06:01 2026
$end
$version
	Icarus Verilog
$end
$timescale
	1s
$end
$scope module tb_encoder8to3dataflow $end
$var wire 3 ! Y [2:0] $end
$var reg 8 " I [7:0] $end
$scope module uut $end
$var wire 8 # I [7:0] $end
$var wire 3 $ Y [2:0] $end
$upscope $end
$upscope $end
$enddefinitions $end
#0
$dumpvars
b0 $
b1 #
b1 "
b0 !
$end
#10
b1 !
b1 $
b10 "
b10 #
#20
b10 !
b10 $
b100 "
b100 #
#30
b11 !
b11 $
b1000 "
b1000 #
#40
b100 !
b100 $
b10000 "
b10000 #
#50
b101 !
b101 $
b100000 "
b100000 #
#60
b110 !
b110 $
b1000000 "
b1000000 #
#70
b111 !
b111 $
b10000000 "
b10000000 #
